﻿BUILDINGS={
	s:STATE_NOGRUD={
		region_state:C03={
			create_building={
				building="building_fishing_wharf"
				add_ownership={
					building={
						type="building_fishing_wharf"
						country="c:C03"
						levels=1
						region="STATE_NOGRUD"
					}
				}
				reserves=1
				activate_production_methods={ "pm_simple_fishing" "pm_unrefrigerated" }
			}
			create_building={
				building="building_logging_camp"
				add_ownership={
					building={
						type="building_logging_camp"
						country="c:C03"
						levels=2
						region="STATE_NOGRUD"
					}
				}
				reserves=1
				activate_production_methods={ "pm_saw_mills" "pm_hardwood" "pm_no_equipment" "pm_road_carts" }
			}
			create_building={
				building="building_cotton_plantation"
				add_ownership={
					building={
						type="building_manor_house"
						country="c:C03"
						levels=1
						region="STATE_NOGRUD"
					}
				}
				reserves=1
				activate_production_methods={ "default_building_cotton_plantation" "pm_no_enhancements" "pm_road_carts"  }
			}
			create_building={
				building="building_maize_farm"
				add_ownership={
					building={
						type="building_manor_house"
						country="c:C03"
						levels=1
						region="STATE_NOGRUD"
					}
					building={
						type="building_maize_farm"
						country="c:C03"
						levels=1
						region="STATE_NOGRUD"
					}
				}
				reserves=1
				activate_production_methods={ "pm_simple_farming" "pm_tools_disabled" }
			}
			create_building={
				building="building_vineyard_plantation"
				add_ownership={
					building={
						type="building_vineyard_plantation"
						country="c:C03"
						levels=1
						region="STATE_NOGRUD"
					}
				}
				reserves=1
				activate_production_methods={ "default_building_vineyard_plantation" "pm_no_enhancements" "pm_road_carts"  }
			}
		}
	}

	s:STATE_YARUHOL={
		region_state:C03={
			create_building={
				building="building_port"
				add_ownership={
					country={
						country="c:C03"
						levels=1
					}
				}
				reserves=1
				activate_production_methods={ "pm_basic_port" }
			}
			create_building={
				building="building_paper_mills"
				add_ownership={
					building={
						type="building_paper_mills"
						country="c:C03"
						levels=1
						region="STATE_YARUHOL"
					}
					building={
						type="building_financial_district"
						country="c:C03"
						levels=1
						region="STATE_YARUHOL"
					}
				}
				reserves=1
				activate_production_methods={ "pm_pulp_pressing" "pm_automation_disabled" }
			}
			create_building={
				building="building_arms_industry"
				add_ownership={
					building={
						type="building_arms_industry"
						country="c:C03"
						levels=1
						region="STATE_YARUHOL"
					}
				}
				reserves=1
				activate_production_methods={ "pm_muskets" }
			}
			create_building={
				building="building_maize_farm"
				add_ownership={
					building={
						type="building_manor_house"
						country="c:C03"
						levels=1
						region="STATE_YARUHOL"
					}
					building={
						type="building_maize_farm"
						country="c:C03"
						levels=2
						region="STATE_YARUHOL"
					}
				}
				reserves=1
				activate_production_methods={ "pm_simple_farming" "pm_tools_disabled" }
			}
			create_building={
				building="building_vineyard_plantation"
				add_ownership={
					building={
						type="building_manor_house"
						country="c:C03"
						levels=1
						region="STATE_YARUHOL"
					}
					building={
						type="building_vineyard_plantation"
						country="c:C03"
						levels=1
						region="STATE_YARUHOL"
					}
				}
				reserves=1
				activate_production_methods={ "default_building_vineyard_plantation" "pm_no_enhancements" "pm_road_carts"  }
			}
			create_building={
				building="building_banana_plantation"
				add_ownership={
					building={
						type="building_manor_house"
						country="c:C03"
						levels=1
						region="STATE_YARUHOL"
					}
				}
				reserves=1
				activate_production_methods={ "default_building_banana_plantation" "pm_no_enhancements" "pm_road_carts"  }
			}
			create_building={
				building="building_sugar_plantation"
				add_ownership={
					building={
						type="building_manor_house"
						country="c:C03"
						levels=1
						region="STATE_YARUHOL"
					}
				}
				reserves=1
				activate_production_methods={ "default_building_sugar_plantation" "pm_no_enhancements" "pm_road_carts"  }
			}
			create_building={
				building="building_coffee_plantation"
				add_ownership={
					building={
						type="building_manor_house"
						country="c:C03"
						levels=3
						region="STATE_YARUHOL"
					}
				}
				reserves=1
				activate_production_methods={ "default_building_coffee_plantation" "pm_no_enhancements" "pm_road_carts"  }
			}
			create_building={
				building="building_livestock_ranch"
				add_ownership={
					building={
						type="building_manor_house"
						country="c:C03"
						levels=1
						region="STATE_YARUHOL"
					}
					building={
						type="building_livestock_ranch"
						country="c:C03"
						levels=1
						region="STATE_YARUHOL"
					}
				}
				reserves=1
				activate_production_methods={ "pm_simple_ranch" "pm_standard_fences" "pm_unrefrigerated" "pm_butchering_tools" }
			}
			create_building={
				building="building_logging_camp"
				add_ownership={
					building={
						type="building_logging_camp"
						country="c:C03"
						levels=3
						region="STATE_YARUHOL"
					}
				}
				reserves=1
				activate_production_methods={ "pm_saw_mills" "pm_no_hardwood" "pm_no_equipment" "pm_road_carts" }
			}
		}
	}

	s:STATE_FASHTUG={
		region_state:C03={
			create_building={
				building="building_government_administration"
				add_ownership={
					country={
						country="c:C03"
						levels=3
					}
				}
				reserves=1
				activate_production_methods={ "pm_simple_organization" "pm_secular_bureaucrats" }
			}
			create_building={
				building="building_construction_sector"
				add_ownership={
					country={
						country="c:C03"
						levels=1
					}
				}
				reserves=1
				activate_production_methods={ "pm_wooden_buildings" }
			}
			create_building={
				building="building_university"
				add_ownership={
					country={
						country="c:C03"
						levels=1
					}
				}
				reserves=1
				activate_production_methods={ "pm_scholastic_education" "pm_arcane_religious_academia" }
			}
			
			create_building={
				building="building_port"
				add_ownership={
					country={
						country="c:C03"
						levels=2
					}
				}
				reserves=1
				activate_production_methods={ "pm_basic_port" }
			}
			create_building={
				building="building_shipyards"
				add_ownership={
					building={
						type="building_shipyards"
						country="c:C03"
						levels=1
						region="STATE_FASHTUG"
					}
				}
				reserves=1
				activate_production_methods={ "pm_basic_shipbuilding"  }
			}
			create_building={
				building="building_military_shipyards"
				add_ownership={
					country={
						country="c:C03"
						levels=1
					}
				}
				reserves=1
				activate_production_methods={ "pm_military_shipbuilding_wooden" }
			}
			create_building={
				building="building_paper_mills"
				add_ownership={
					building={
						type="building_paper_mills"
						country="c:C03"
						levels=1
						region="STATE_FASHTUG"
					}
				}
				reserves=1
				activate_production_methods={ "pm_pulp_pressing" "pm_automation_disabled" }
			}
			create_building={
				building="building_tooling_workshops"
				add_ownership={
					building={
						type="building_financial_district"
						country="c:C03"
						levels=1
						region="STATE_FASHTUG"
					}
				}
				reserves=1
				activate_production_methods={ "pm_crude_tools" "pm_automation_disabled" }
			}
			create_building={
				building="building_furniture_manufacturies"
				add_ownership={
					building={
						type="building_furniture_manufacturies"
						country="c:C03"
						levels=1
						region="STATE_FASHTUG"
					}
				}
				reserves=1
				activate_production_methods={ "pm_handcrafted_furniture" "pm_no_luxuries" "pm_automation_disabled" }
			}
			create_building={
				building="building_coffee_plantation"
				add_ownership={
					building={
						type="building_manor_house"
						country="c:C03"
						levels=2
						region="STATE_FASHTUG"
					}
					building={
						type="building_sugar_plantation"
						country="c:C03"
						levels=2
						region="STATE_FASHTUG"
					}
				}
				reserves=1
				activate_production_methods={ "default_building_coffee_plantation" "pm_no_enhancements" "pm_road_carts"  }
			}
			create_building={
				building="building_sugar_plantation"
				add_ownership={
					building={
						type="building_manor_house"
						country="c:C03"
						levels=1
						region="STATE_FASHTUG"
					}
				}
				reserves=1
				activate_production_methods={ "default_building_sugar_plantation" "pm_no_enhancements" "pm_road_carts"  }
			}
			create_building={
				building="building_banana_plantation"
				add_ownership={
					building={
						type="building_manor_house"
						country="c:C03"
						levels=2
						region="STATE_FASHTUG"
					}
					building={
						type="building_banana_plantation"
						country="c:C03"
						levels=1
						region="STATE_FASHTUG"
					}
				}
				reserves=1
				activate_production_methods={ "default_building_banana_plantation" "pm_no_enhancements" "pm_road_carts"  }
			}
			create_building={
				building="building_maize_farm"
				add_ownership={
					building={
						type="building_manor_house"
						country="c:C03"
						levels=3
						region="STATE_FASHTUG"
					}
					building={
						type="building_maize_farm"
						country="c:C03"
						levels=3
						region="STATE_FASHTUG"
					}
				}
				reserves=1
				activate_production_methods={ "pm_simple_farming" "pm_no_secondary" "pm_tools_disabled" }
			}
			create_building={
				building="building_livestock_ranch"
				add_ownership={
					building={
						type="building_manor_house"
						country="c:C03"
						levels=3
						region="STATE_FASHTUG"
					}
					building={
						type="building_livestock_ranch"
						country="c:C03"
						levels=3
						region="STATE_FASHTUG"
					}
				}
				reserves=1
				activate_production_methods={ "pm_simple_ranch" "pm_standard_fences" "pm_unrefrigerated" "pm_butchering_tools" }
			}
			create_building={
				building="building_logging_camp"
				add_ownership={
					building={
						type="building_logging_camp"
						country="c:C03"
						levels=2
						region="STATE_FASHTUG"
					}
					building={
						type="building_financial_district"
						country="c:C03"
						levels=1
						region="STATE_FASHTUG"
					}
					building={
						type="building_manor_house"
						country="c:C03"
						levels=2
						region="STATE_FASHTUG"
					}
				}
				reserves=1
				activate_production_methods={ "pm_saw_mills" "pm_no_hardwood" "pm_no_equipment" "pm_road_carts" }
			}
			create_building={
				building="building_iron_mine"
				add_ownership={
					building={
						type="building_iron_mine"
						country="c:C03"
						levels=1
						region="STATE_FASHTUG"
					}
				}
				reserves=1
				activate_production_methods={ "pm_picks_and_shovels_building_iron_mine" "pm_no_explosives" "pm_no_steam_automation" "pm_road_carts" }
			}
			create_building={
				building="building_fishing_wharf"
				add_ownership={
					building={
						type="building_fishing_wharf"
						country="c:C03"
						levels=2
						region="STATE_FASHTUG"
					}
				}
				reserves=1
				activate_production_methods={ "pm_simple_fishing" "pm_unrefrigerated" }
			}
		}
	}

	s:STATE_OZGAR={
		region_state:C03={
			create_building={
				building="building_government_administration"
				add_ownership={
					country={
						country="c:C03"
						levels=4
					}
				}
				reserves=1
				activate_production_methods={ "pm_simple_organization" "pm_secular_bureaucrats" }
			}
			create_building={
				building="building_construction_sector"
				add_ownership={
					country={
						country="c:C03"
						levels=1
					}
				}
				reserves=1
				activate_production_methods={ "pm_wooden_buildings" }
			}
			create_building={
				building="building_university"
				add_ownership={
					country={
						country="c:C03"
						levels=1
					}
				}
				reserves=1
				activate_production_methods={ "pm_scholastic_education" "pm_arcane_religious_academia" }
			}
			
			create_building={
				building="building_tooling_workshops"
				add_ownership={
					building={
						type="building_tooling_workshops"
						country="c:C03"
						levels=1
						region="STATE_OZGAR"
					}
				}
				reserves=1
				activate_production_methods={ "pm_pig_iron" "pm_automation_disabled" }
			}
			create_building={
				building="building_paper_mills"
				add_ownership={
					building={
						type="building_paper_mills"
						country="c:C03"
						levels=2
						region="STATE_OZGAR"
					}
				}
				reserves=1
				activate_production_methods={ "pm_pulp_pressing" "pm_automation_disabled" }
			}
			create_building={
				building="building_iron_mine"
				add_ownership={
					building={
						type="building_iron_mine"
						country="c:C03"
						levels=1
						region="STATE_OZGAR"
					}
				}
				reserves=1
				activate_production_methods={ "pm_picks_and_shovels_building_iron_mine" "pm_no_explosives" "pm_no_steam_automation" "pm_road_carts" }
			}
			create_building={
				building="building_gold_mine"
				add_ownership={
					building={
						type="building_financial_district"
						country="c:C03"
						levels=1
						region="STATE_OZGAR"
					}
				}
				reserves=1
				activate_production_methods={ "pm_picks_and_shovels_building_gold_mine" "pm_no_explosives" "pm_no_steam_automation" "pm_road_carts" }
			}
			create_building={
				building="building_logging_camp"
				add_ownership={
					building={
						type="building_logging_camp"
						country="c:C03"
						levels=3
						region="STATE_OZGAR"
					}
					building={
						type="building_financial_district"
						country="c:C03"
						levels=1
						region="STATE_OZGAR"
					}
				}
				reserves=1
				activate_production_methods={ "pm_saw_mills" "pm_no_hardwood" "pm_no_equipment" "pm_road_carts" }
			}
			create_building={
				building="building_maize_farm"
				add_ownership={
					building={
						type="building_manor_house"
						country="c:C03"
						levels=3
						region="STATE_OZGAR"
					}
					building={
						type="building_maize_farm"
						country="c:C03"
						levels=3
						region="STATE_OZGAR"
					}
				}
				reserves=1
				activate_production_methods={ "pm_simple_farming" "pm_no_secondary" "pm_tools_disabled" }
			}
			create_building={
				building="building_banana_plantation"
				add_ownership={
					building={
						type="building_manor_house"
						country="c:C03"
						levels=1
						region="STATE_OZGAR"
					}
					building={
						type="building_banana_plantation"
						country="c:C03"
						levels=2
						region="STATE_OZGAR"
					}
				}
				reserves=1
				activate_production_methods={ "default_building_banana_plantation" "pm_no_enhancements" "pm_road_carts"  }
			}
			create_building={
				building="building_sugar_plantation"
				add_ownership={
					building={
						type="building_manor_house"
						country="c:C03"
						levels=1
						region="STATE_OZGAR"
					}
					building={
						type="building_sugar_plantation"
						country="c:C03"
						levels=1
						region="STATE_OZGAR"
					}
				}
				reserves=1
				activate_production_methods={ "default_building_sugar_plantation" "pm_no_enhancements" "pm_road_carts"  }
			}
			create_building={
				building="building_livestock_ranch"
				add_ownership={
					building={
						type="building_manor_house"
						country="c:C03"
						levels=3
						region="STATE_OZGAR"
					}
					building={
						type="building_livestock_ranch"
						country="c:C03"
						levels=1
						region="STATE_OZGAR"
					}
				}
				reserves=1
				activate_production_methods={ "pm_simple_ranch" "pm_standard_fences" "pm_unrefrigerated" "pm_butchering_tools" }
			}
		}
	}

	s:STATE_BRAMMYAR={
		region_state:C03={
			create_building={
				building="building_government_administration"
				add_ownership={
					country={
						country="c:C03"
						levels=1
					}
				}
				reserves=1
				activate_production_methods={ "pm_simple_organization" "pm_secular_bureaucrats" }
			}
			
			create_building={
				building="building_port"
				add_ownership={
					country={
						country="c:C03"
						levels=1
					}
				}
				reserves=1
				activate_production_methods={ "pm_basic_port" }
			}
			create_building={
				building="building_textile_mills"
				add_ownership={
					building={
						type="building_textile_mills"
						country="c:C03"
						levels=3
						region="STATE_BRAMMYAR"
					}
				}
				reserves=1
				activate_production_methods={ "pm_handsewn_clothes" "pm_traditional_looms" "pm_no_luxury_clothes" }
			}
			create_building={
				building="building_logging_camp"
				add_ownership={
					building={
						type="building_logging_camp"
						country="c:C03"
						levels=3
						region="STATE_BRAMMYAR"
					}
				}
				reserves=1
				activate_production_methods={ "pm_saw_mills" "pm_no_hardwood" "pm_no_equipment" "pm_road_carts" }
			}
			create_building={
				building="building_fishing_wharf"
				add_ownership={
					building={
						type="building_fishing_wharf"
						country="c:C03"
						levels=3
						region="STATE_BRAMMYAR"
					}
				}
				reserves=1
				activate_production_methods={ "pm_simple_fishing" "pm_unrefrigerated" }
			}
			create_building={
				building="building_maize_farm"
				add_ownership={
					building={
						type="building_manor_house"
						country="c:C03"
						levels=2
						region="STATE_BRAMMYAR"
					}
					building={
						type="building_maize_farm"
						country="c:C03"
						levels=2
						region="STATE_BRAMMYAR"
					}
				}
				reserves=1
				activate_production_methods={ "pm_simple_farming" "pm_no_secondary" "pm_tools_disabled" }
			}
			create_building={
				building="building_cotton_plantation"
				add_ownership={
					building={
						type="building_manor_house"
						country="c:C03"
						levels=4
						region="STATE_BRAMMYAR"
					}
					building={
						type="building_cotton_plantation"
						country="c:C03"
						levels=1
						region="STATE_BRAMMYAR"
					}
				}
				reserves=1
				activate_production_methods={ "default_building_cotton_plantation" "pm_no_enhancements" "pm_road_carts"  }
			}
			create_building={
				building="building_tobacco_plantation"
				add_ownership={
					building={
						type="building_tobacco_plantation"
						country="c:C03"
						levels=1
						region="STATE_BRAMMYAR"
					}
				}
				reserves=1
				activate_production_methods={ "default_building_tobacco_plantation" "pm_no_enhancements" "pm_road_carts"  }
			}
			create_building={
				building="building_banana_plantation"
				add_ownership={
					building={
						type="building_banana_plantation"
						country="c:C03"
						levels=1
						region="STATE_BRAMMYAR"
					}
				}
				reserves=1
				activate_production_methods={ "default_building_banana_plantation" "pm_no_enhancements" "pm_road_carts"  }
			}
		}
	}

	s:STATE_JIBIRAEN={
		region_state:C04={
			create_building={
				building="building_logging_camp"
				add_ownership={
					building={
						type="building_logging_camp"
						country="c:C04"
						levels=1
						region="STATE_JIBIRAEN"
					}
				}
				reserves=1
				activate_production_methods={ "pm_saw_mills" "pm_no_hardwood" "pm_no_equipment" "pm_road_carts" }
			}
			
			create_building={
				building="building_port"
				add_ownership={
					country={
						country="c:C04"
						levels=1
					}
				}
				reserves=1
				activate_production_methods={ "pm_basic_port" }
			}
			create_building={
				building="building_maize_farm"
				add_ownership={
					building={
						type="building_manor_house"
						country="c:C04"
						levels=1
						region="STATE_JIBIRAEN"
					}
					building={
						type="building_maize_farm"
						country="c:C04"
						levels=1
						region="STATE_JIBIRAEN"
					}
				}
				reserves=1
				activate_production_methods={ "pm_simple_farming" "pm_no_secondary" "pm_tools_disabled" }
			}
			create_building={
				building="building_livestock_ranch"
				add_ownership={
					building={
						type="building_manor_house"
						country="c:C04"
						levels=1
						region="STATE_JIBIRAEN"
					}
					building={
						type="building_livestock_ranch"
						country="c:C04"
						levels=1
						region="STATE_JIBIRAEN"
					}
				}
				reserves=1
				activate_production_methods={ "pm_simple_ranch" "pm_standard_fences" "pm_unrefrigerated" "pm_butchering_tools" }
			}
		}
	}

	s:STATE_MARUKHAN={
		region_state:C03={
			create_building={
				building="building_logging_camp"
				add_ownership={
					building={
						type="building_logging_camp"
						country="c:C03"
						levels=1
						region="STATE_MARUKHAN"
					}
				}
				reserves=1
				activate_production_methods={ "pm_saw_mills" "pm_no_hardwood" "pm_no_equipment" "pm_road_carts" }
			}
			create_building={
				building="building_banana_plantation"
				add_ownership={
					building={
						type="building_manor_house"
						country="c:C03"
						levels=1
						region="STATE_MARUKHAN"
					}
				}
				reserves=1
				activate_production_methods={ "default_building_banana_plantation" "pm_no_enhancements" "pm_road_carts"  }
			}
			create_building={
				building="building_rice_farm"
				add_ownership={
					building={
						type="building_manor_house"
						country="c:C03"
						levels=1
						region="STATE_MARUKHAN"
					}
					building={
						type="building_rice_farm"
						country="c:C03"
						levels=1
						region="STATE_MARUKHAN"
					}
				}
				reserves=1
				activate_production_methods={ "pm_simple_farming_building_rice_farm" "pm_no_secondary" "pm_tools_disabled" }
			}
		}
	}

	s:STATE_THE_MIDDANS={
		region_state:C06={
			# create_building={
			# 	building="building_sugar_plantation"
			# 	level=1
			# 	reserves=1
			# 	activate_production_methods={ "default_building_sugar_plantation" "pm_no_enhancements" "pm_road_carts"  }
			# }
		}
		region_state:C06={
		}
		region_state:C06 = {
			create_building={
				building="building_port"
				add_ownership={
					country={
						country="c:C06"
						levels=1
					}
				}
				reserves=1
				activate_production_methods={ "pm_anchorage" }
			}
		}
	}

	s:STATE_MUSHROOM_FOREST = {
		region_state:C16 = {
			create_building={
				building="building_opium_plantation"
				add_ownership={
					building={
						type="building_manor_house"
						country="c:C16"
						levels=1
						region="STATE_MUSHROOM_FOREST"
					}
				}
				reserves=1
				activate_production_methods={ "default_building_opium_plantation" "pm_no_enhancements" "pm_road_carts"  }
			}
			
		}
	}

	s:STATE_SORFEN = {
		region_state:C06 = {
			create_building={
				building="building_rice_farm"
				add_ownership={
					building={
						type="building_manor_house"
						country="c:C05"
						levels=1
						region="STATE_DALAINE"
					}
				}
				reserves=1
				activate_production_methods={ "pm_simple_farming_building_rice_farm" "pm_no_secondary" "pm_tools_disabled" }
			}
			create_building={
				building="building_logging_camp"
				add_ownership={
					building={
						type="building_logging_camp"
						country="c:C06"
						levels=1
						region="STATE_SORFEN"
					}
				}
				reserves=1
				activate_production_methods={ "pm_simple_forestry" "pm_no_hardwood" "pm_no_equipment" "pm_road_carts" }
			}
			
			create_building={
				building="building_port"
				add_ownership={
					country={
						country="c:C06"
						levels=1
					}
				}
				reserves=1
				activate_production_methods={ "pm_basic_port" }
			}
		}
	}

	s:STATE_SEINAINE = {
		region_state:C05 = {
			create_building={
				building="building_banana_plantation"
				add_ownership={
					building={
						type="building_financial_district"
						country="c:C05"
						levels=2
						region="STATE_SEINAINE"
					}
					building={
						type="building_manor_house"
						country="c:C05"
						levels=1
						region="STATE_SEINAINE"
					}
				}
				reserves=1
				activate_production_methods={ "default_building_banana_plantation" "pm_no_enhancements" "pm_road_carts"  }
			}
			create_building={
				building="building_maize_farm"
				add_ownership={
					building={
						type="building_manor_house"
						country="c:C05"
						levels=8
						region="STATE_SEINAINE"
					}
				}
				reserves=1
				activate_production_methods={ "pm_simple_farming" "pm_citrus_orchards" "pm_tools_disabled" }
			}
			create_building={
				building="building_livestock_ranch"
				add_ownership={
					building={
						type="building_manor_house"
						country="c:C05"
						levels=1
						region="STATE_SEINAINE"
					}
				}
				reserves=1
				activate_production_methods={ "pm_simple_ranch" "pm_standard_fences" "pm_unrefrigerated" "pm_butchering_tools" }
			}
			create_building={
				building="building_sugar_plantation"
				add_ownership={
					building={
						type="building_manor_house"
						country="c:C05"
						levels=3
						region="STATE_SEINAINE"
					}
				}
				reserves=1
				activate_production_methods={ "default_building_sugar_plantation" "pm_no_enhancements" "pm_road_carts"  }
			}
			create_building={
				building="building_logging_camp"
				add_ownership={
					building={
						type="building_logging_camp"
						country="c:C05"
						levels=1
						region="STATE_SEINAINE"
					}
				}
				reserves=1
				activate_production_methods={ "pm_simple_forestry" "pm_hardwood" "pm_no_equipment" "pm_road_carts" }
			}
			create_building={
				building="building_fishing_wharf"
				add_ownership={
					building={
						type="building_fishing_wharf"
						country="c:C05"
						levels=1
						region="STATE_SEINAINE"
					}
				}
				reserves=1
				activate_production_methods={ "pm_simple_fishing" "pm_unrefrigerated" }
			}
			create_building={
				building="building_arms_industry"
				add_ownership={
					building={
						type="building_arms_industry"
						country="c:C05"
						levels=1
						region="STATE_SEINAINE"
					}
				}
				reserves=1
				activate_production_methods={ "pm_muskets"}
			}
			create_building={
				building="building_government_administration"
				add_ownership={
					country={
						country="c:C05"
						levels=1
					}
				}
				reserves=1
				activate_production_methods={ "pm_simple_organization" "pm_secular_bureaucrats" }
			}
			
		}
		region_state:C06 = {
			create_building={
				building="building_sugar_plantation"
				add_ownership={
					building={
						type="building_sugar_plantation"
						country="c:C06"
						levels=1
						region="STATE_SEINAINE"
					}
				}
				reserves=1
				activate_production_methods={ "default_building_sugar_plantation" "pm_no_enhancements" "pm_road_carts"  }
			}
			create_building={
				building="building_fishing_wharf"
				add_ownership={
					building={
						type="building_fishing_wharf"
						country="c:C06"
						levels=1
						region="STATE_SEINAINE"
					}
				}
				reserves=1
				activate_production_methods={ "pm_simple_fishing" "pm_unrefrigerated" }
			}
		}
		region_state:A01 = {
			create_building={
				building="building_sugar_plantation"
				add_ownership={
					building={
						type="building_manor_house"
						country="c:A01"
						levels=1
						region="STATE_SEINAINE"
					}
				}
				reserves=1
				activate_production_methods={ "default_building_sugar_plantation" "pm_no_enhancements" "pm_road_carts"  }
			}
			create_building={
				building="building_port"
				add_ownership={
					country={
						country="c:A01"
						levels=1
					}
				}
				reserves=1
				activate_production_methods={ "pm_anchorage" }
			}
		}
	}

	s:STATE_DALAINE = {
		region_state:C05 = {
			create_building={
				building="building_banana_plantation"
				add_ownership={
					building={
						type="building_manor_house"
						country="c:C05"
						levels=3
						region="STATE_DALAINE"
					}
				}
				reserves=1
				activate_production_methods={ "default_building_banana_plantation" "pm_no_enhancements" "pm_road_carts"  }
			}
			create_building={
				building="building_maize_farm"
				add_ownership={
					building={
						type="building_manor_house"
						country="c:C05"
						levels=8
						region="STATE_DALAINE"
					}
				}
				reserves=1
				activate_production_methods={ "pm_simple_farming" "pm_citrus_orchards" "pm_tools_disabled" }
			}
			create_building={
				building="building_sugar_plantation"
				add_ownership={
					building={
						type="building_manor_house"
						country="c:C05"
						levels=2
						region="STATE_DALAINE"
					}
				}
				reserves=1
				activate_production_methods={ "default_building_sugar_plantation" "pm_no_enhancements" "pm_road_carts"  }
			}
			create_building={
				building="building_coffee_plantation"
				add_ownership={
					building={
						type="building_financial_district"
						country="c:C05"
						levels=1
						region="STATE_DALAINE"
					}
				}
				reserves=1
				activate_production_methods={ "default_building_coffee_plantation" "pm_no_enhancements" "pm_road_carts"  }
			}
			create_building={
				building="building_iron_mine"
				add_ownership={
					building={
						type="building_financial_district"
						country="c:C05"
						levels=1
						region="STATE_DALAINE"
					}
				}
				reserves=1
				activate_production_methods={ "pm_picks_and_shovels_building_iron_mine" "pm_no_explosives" "pm_no_steam_automation" "pm_road_carts" }
			}
			create_building={
				building="building_government_administration"
				add_ownership={
					country={
						country="c:C05"
						levels=1
					}
				}
				reserves=1
				activate_production_methods={ "pm_simple_organization" "pm_secular_bureaucrats" }
			}
			
			create_building={
				building="building_port"
				add_ownership={
					country={
						country="c:C05"
						levels=1
					}
				}
				reserves=1
				activate_production_methods={ "pm_basic_port" }
			}
			create_building={
				building="building_furniture_manufacturies"
				add_ownership={
					building={
						type="building_furniture_manufacturies"
						country="c:C05"
						levels=1
						region="STATE_DALAINE"
					}
				}
				reserves=1
				activate_production_methods={ "pm_handcrafted_furniture" "pm_no_luxuries" "pm_automation_disabled" }
			}
			create_building={
				building="building_tooling_workshops"
				add_ownership={
					building={
						type="building_tooling_workshops"
						country="c:C05"
						levels=1
						region="STATE_DALAINE"
					}
				}
				reserves=1
				activate_production_methods={ "pm_pig_iron" "pm_automation_disabled" }
			}
			create_building={
				building="building_logging_camp"
				add_ownership={
					building={
						type="building_financial_district"
						country="c:C05"
						levels=1
						region="STATE_DALAINE"
					}
				}
				reserves=1
				activate_production_methods={ "pm_saw_mills" "pm_no_hardwood" "pm_no_equipment" "pm_road_carts" }
			}
		}
	}

	s:STATE_THALASARAN = {
		region_state:C08 = {
			create_building={
				building="building_sugar_plantation"
				add_ownership={
					building={
						type="building_manor_house"
						country="c:C08"
						levels=1
						region="STATE_THALASARAN"
					}
				}
				reserves=1
				activate_production_methods={ "default_building_sugar_plantation" "pm_no_enhancements" "pm_road_carts"  }
			}
			create_building={
				building="building_coffee_plantation"
				add_ownership={
					building={
						type="building_manor_house"
						country="c:C08"
						levels=1
						region="STATE_THALASARAN"
					}
				}
				reserves=1
				activate_production_methods={ "default_building_coffee_plantation" "pm_no_enhancements" "pm_road_carts"  }
			}
			
		}
		region_state:A03 = {
			create_building={
				building="building_sugar_plantation"
				add_ownership={
					building={
						type="building_manor_house"
						country="c:A03"
						levels=1
						region="STATE_THALASARAN"
					}
				}
				reserves=1
				activate_production_methods={ "default_building_sugar_plantation" "pm_no_enhancements" "pm_road_carts"  }
			}
			create_building={
				building="building_coffee_plantation"
				add_ownership={
					building={
						type="building_manor_house"
						country="c:A03"
						levels=1
						region="STATE_THALASARAN"
					}
				}
				reserves=1
				activate_production_methods={ "default_building_coffee_plantation" "pm_no_enhancements" "pm_road_carts"  }
			}
			create_building={
				building="building_port"
				add_ownership={
					country={
						country="c:A03"
						levels=1
					}
				}
				reserves=1
				activate_production_methods={ "pm_anchorage" }
			}
		}
	}

	s:STATE_KIOHALEN = {
		region_state:C07 = {
			create_building={
				building="building_maize_farm"
				add_ownership={
					building={
						type="building_manor_house"
						country="c:C07"
						levels=2
						region="STATE_KIOHALEN"
					}
				}
				reserves=1
				activate_production_methods={ "pm_simple_farming" "pm_citrus_orchards" "pm_tools_disabled" }
			}
			create_building={
				building="building_cotton_plantation"
				add_ownership={
					building={
						type="building_manor_house"
						country="c:C07"
						levels=1
						region="STATE_KIOHALEN"
					}
				}
				reserves=1
				activate_production_methods={ "default_building_cotton_plantation" "pm_no_enhancements" "pm_road_carts"  }
			}
			create_building={
				building="building_tobacco_plantation"
				add_ownership={
					building={
						type="building_manor_house"
						country="c:C07"
						levels=2
						region="STATE_KIOHALEN"
					}
				}
				reserves=1
				activate_production_methods={ "default_building_tobacco_plantation" "pm_no_enhancements" "pm_road_carts"  }
			}
			create_building={
				building="building_sugar_plantation"
				add_ownership={
					building={
						type="building_manor_house"
						country="c:C07"
						levels=1
						region="STATE_KIOHALEN"
					}
				}
				reserves=1
				activate_production_methods={ "default_building_sugar_plantation" "pm_no_enhancements" "pm_road_carts"  }
			}
			create_building={
				building="building_dye_plantation"
				add_ownership={
					building={
						type="building_manor_house"
						country="c:C07"
						levels=2
						region="STATE_KIOHALEN"
					}
				}
				reserves=1
				activate_production_methods={ "default_building_dye_plantation" "pm_no_enhancements" "pm_road_carts"  }
			}
			create_building={
				building="building_government_administration"
				add_ownership={
					country={
						country="c:C07"
						levels=1
					}
				}
				reserves=1
				activate_production_methods={ "pm_simple_organization" "pm_secular_bureaucrats" }
			}
			create_building={
				building="building_paper_mills"
				add_ownership={
					building={
						type="building_paper_mills"
						country="c:C07"
						levels=1
						region="STATE_KIOHALEN"
					}
				}
				reserves=1
				activate_production_methods={ "pm_pulp_pressing" "pm_automation_disabled" }
			}
			
			create_building={
				building="building_arts_academy"
				add_ownership={
					building={
						type="building_arts_academy"
						country="c:C07"
						levels=1
						region="STATE_KIOHALEN"
					}
				}
				reserves=1
				activate_production_methods={ "pm_traditional_art" }
			}
		}
	}

	s:STATE_KIINDTIR = {
		region_state:C07 = {
			create_building={
				building="building_government_administration"
				add_ownership={
					country={
						country="c:C07"
						levels=1
					}
				}
				reserves=1
				activate_production_methods={ "pm_simple_organization" "pm_secular_bureaucrats" }
			}
			
			create_building={
				building="building_arts_academy"
				add_ownership={
					building={
						type="building_arts_academy"
						country="c:C07"
						levels=1
						region="STATE_KIINDTIR"
					}
				}
				reserves=1
				activate_production_methods={ "pm_traditional_art" }
			}
			# create_building={
			# 	building="building_wheat_farm"
			# 	level=1
			# 	reserves=1
			# 	activate_production_methods={ "pm_simple_farming" "pm_citrus_orchards" "pm_tools_disabled" "pm_privately_owned" }
			# }
			create_building={
				building="building_logging_camp"
				add_ownership={
					building={
						type="building_logging_camp"
						country="c:C07"
						levels=1
						region="STATE_KIINDTIR"
					}
				}
				reserves=1
				activate_production_methods={ "pm_simple_forestry" "pm_no_hardwood" "pm_no_equipment" "pm_road_carts" }
			}
		}
	}

	s:STATE_DAZINKOST = {
		region_state:C01 = {
			create_building={
				building="building_livestock_ranch"
				add_ownership={
					building={
						type="building_manor_house"
						country="c:C01"
						levels=1
						region="STATE_DAZINKOST"
					}
				}
				reserves=1
				activate_production_methods={ "pm_simple_ranch" "pm_standard_fences" "pm_unrefrigerated" "pm_butchering_tools" }
			}
			create_building={
				building="building_iron_mine"
				add_ownership={
					building={
						type="building_iron_mine"
						country="c:C01"
						levels=1
						region="STATE_DAZINKOST"
					}
				}
				reserves=1
				activate_production_methods={ "pm_picks_and_shovels_building_iron_mine" "pm_no_explosives" "pm_no_steam_automation" "pm_road_carts" }
			}
			create_building={
				building="building_fishing_wharf"
				add_ownership={
					building={
						type="building_fishing_wharf"
						country="c:C01"
						levels=1
						region="STATE_DAZINKOST"
					}
				}
				reserves=1
				activate_production_methods={ "pm_simple_fishing" "pm_unrefrigerated" }
			}
			
		}
	}

	s:STATE_REZANOAN = {
		region_state:C01 = {
			create_building={
				building="building_livestock_ranch"
				add_ownership={
					building={
						type="building_manor_house"
						country="c:C01"
						levels=1
						region="STATE_REZANOAN"
					}
				}
				reserves=1
				activate_production_methods={ "pm_simple_ranch" "pm_standard_fences" "pm_unrefrigerated" "pm_butchering_tools" }
			}
			create_building={
				building="building_wheat_farm"
				add_ownership={
					building={
						type="building_manor_house"
						country="c:C01"
						levels=3
						region="STATE_REZANOAN"
					}
				}
				reserves=1
				activate_production_methods={ "pm_simple_farming" "pm_citrus_orchards" "pm_tools_disabled" }
			}
			create_building={
				building="building_fishing_wharf"
				add_ownership={
					building={
						type="building_fishing_wharf"
						country="c:C01"
						levels=1
						region="STATE_REZANOAN"
					}
				}
				reserves=1
				activate_production_methods={ "pm_simple_fishing" "pm_unrefrigerated" }
			}
			create_building={
				building="building_glassworks"
				add_ownership={
					building={
						type="building_glassworks"
						country="c:C01"
						levels=1
						region="STATE_REZANOAN"
					}
				}
				reserves=1
				activate_production_methods={ "pm_forest_glass" "pm_disabled_ceramics" "pm_manual_glassblowing" }
			}
			create_building={
				building="building_paper_mills"
				add_ownership={
					building={
						type="building_paper_mills"
						country="c:C01"
						levels=1
						region="STATE_REZANOAN"
					}
				}
				reserves=1
				activate_production_methods={ "pm_pulp_pressing" "pm_automation_disabled" }
			}
			create_building={
				building="building_tooling_workshops"
				add_ownership={
					building={
						type="building_financial_district"
						country="c:C01"
						levels=1
						region="STATE_REZANOAN"
					}
				}
				reserves=1
				activate_production_methods={ "pm_pig_iron" "pm_automation_disabled" }
			}
			create_building={
				building="building_furniture_manufacturies"
				add_ownership={
					building={
						type="building_financial_district"
						country="c:C01"
						levels=1
						region="STATE_REZANOAN"
					}
				}
				reserves=1
				activate_production_methods={ "pm_handcrafted_furniture" "pm_no_luxuries" "pm_automation_disabled" }
			}
			create_building={
				building="building_military_shipyards"
				add_ownership={
					country={
						country="c:C01"
						levels=1
					}
				}
				reserves=1
				activate_production_methods={ "pm_military_shipbuilding_wooden" }
			}
			create_building={
				building="building_university"
				add_ownership={
					country={
						country="c:C01"
						levels=2
					}
				}
				reserves=1
				activate_production_methods={ "pm_scholastic_education" "pm_arcane_religious_academia" }
			}
			create_building={
				building="building_government_administration"
				add_ownership={
					country={
						country="c:C01"
						levels=2
					}
				}
				reserves=1
				activate_production_methods={ "pm_simple_organization" "pm_secular_bureaucrats" }
			}
			
			create_building={
				building="building_port"
				add_ownership={
					country={
						country="c:C01"
						levels=1
					}
				}
				reserves=1
				activate_production_methods={ "pm_basic_port" }
			}
			create_building={
				building="building_construction_sector"
				add_ownership={
					country={
						country="c:C01"
						levels=1
					}
				}
				reserves=1
				activate_production_methods={ "pm_wooden_buildings" }
			}
		}
	}

	s:STATE_BROAN_KEIR = {
		region_state:C01 = {
			create_building={
				building="building_livestock_ranch"
				add_ownership={
					building={
						type="building_manor_house"
						country="c:C01"
						levels=3
						region="STATE_BROAN_KEIR"
					}
				}
				reserves=1
				activate_production_methods={ "pm_simple_ranch" "pm_standard_fences" "pm_unrefrigerated" "pm_butchering_tools" }
			}
			create_building={
				building="building_wheat_farm"
				add_ownership={
					building={
						type="building_manor_house"
						country="c:C01"
						levels=1
						region="STATE_BROAN_KEIR"
					}
				}
				reserves=1
				activate_production_methods={ "pm_simple_farming" "pm_citrus_orchards" "pm_tools_disabled" }
			}
			create_building={
				building="building_arms_industry"
				add_ownership={
					building={
						type="building_arms_industry"
						country="c:C01"
						levels=1
						region="STATE_BROAN_KEIR"
					}
				}
				reserves=1
				activate_production_methods={ "pm_muskets" }
			}
			create_building={
				building="building_arts_academy"
				add_ownership={
					building={
						type="building_arts_academy"
						country="c:C01"
						levels=1
						region="STATE_BROAN_KEIR"
					}
				}
				reserves=1
				activate_production_methods={ "pm_traditional_art" }
			}
			create_building={
				building="building_government_administration"
				add_ownership={
					country={
						country="c:C01"
						levels=1
					}
				}
				reserves=1
				activate_production_methods={ "pm_simple_organization" "pm_secular_bureaucrats" }
			}
			
		}
	}

	s:STATE_NUREL = {
		region_state:C01 = {
			create_building={
				building="building_wheat_farm"
				add_ownership={
					building={
						type="building_manor_house"
						country="c:C01"
						levels=4
						region="STATE_NUREL"
					}
				}
				reserves=1
				activate_production_methods={ "pm_simple_farming" "pm_citrus_orchards" "pm_tools_disabled" }
			}
			create_building={
				building="building_sugar_plantation"
				add_ownership={
					building={
						type="building_manor_house"
						country="c:C01"
						levels=1
						region="STATE_NUREL"
					}
				}
				reserves=1
				activate_production_methods={ "default_building_sugar_plantation" "pm_no_enhancements" "pm_road_carts"  }
			}
			create_building={
				building="building_cotton_plantation"
				add_ownership={
					building={
						type="building_manor_house"
						country="c:C01"
						levels=1
						region="STATE_NUREL"
					}
				}
				reserves=1
				activate_production_methods={ "default_building_cotton_plantation" "pm_no_enhancements" "pm_road_carts"  }
			}
			create_building={
				building="building_logging_camp"
				add_ownership={
					building={
						type="building_logging_camp"
						country="c:C01"
						levels=2
						region="STATE_NUREL"
					}
				}
				reserves=1
				activate_production_methods={ "pm_saw_mills" "pm_hardwood" "pm_no_equipment" "pm_road_carts" }
			}
			# create_building={
			# 	building="building_iron_mine"
			# 	level=1
			# 	reserves=1
			# 	activate_production_methods={ "pm_picks_and_shovels_building_iron_mine" "pm_no_explosives" "pm_no_steam_automation" "pm_road_carts" "pm_merchant_guilds_building_iron_mine" }
			# }
			create_building={
				building="building_shipyards"
				add_ownership={
					building={
						type="building_shipyards"
						country="c:C01"
						levels=1
						region="STATE_NUREL"
					}
				}
				reserves=1
				activate_production_methods={ "pm_basic_shipbuilding"  }
			}
			
		}
	}

	s:STATE_ARENEL = {
		region_state:C01 = {
			# create_building={
			# 	building="building_maize_farm"
			# 	level=2
			# 	reserves=1
			# 	activate_production_methods={ "pm_simple_farming" "pm_citrus_orchards" "pm_tools_disabled" "pm_privately_owned" }
			# }
			create_building={
				building="building_sugar_plantation"
				add_ownership={
					building={
						type="building_manor_house"
						country="c:C01"
						levels=1
						region="STATE_ARENEL"
					}
				}
				reserves=1
				activate_production_methods={ "default_building_sugar_plantation" "pm_no_enhancements" "pm_road_carts"  }
			}
			create_building={
				building="building_fishing_wharf"
				add_ownership={
					building={
						type="building_fishing_wharf"
						country="c:C01"
						levels=1
						region="STATE_ARENEL"
					}
				}
				reserves=1
				activate_production_methods={ "pm_simple_fishing" "pm_unrefrigerated" }
			}
			create_building={
				building="building_logging_camp"
				add_ownership={
					building={
						type="building_logging_camp"
						country="c:C01"
						levels=1
						region="STATE_ARENEL"
					}
					building={
						type="building_financial_district"
						country="c:C01"
						levels=1
						region="STATE_REZANOAN"
					}
				}
				reserves=1
				activate_production_methods={ "pm_saw_mills" "pm_hardwood" "pm_no_equipment" "pm_road_carts" }
			}
			create_building={
				building="building_iron_mine"
				add_ownership={
					building={
						type="building_iron_mine"
						country="c:C01"
						levels=1
						region="STATE_ARENEL"
					}
				}
				reserves=1
				activate_production_methods={ "pm_picks_and_shovels_building_iron_mine" "pm_no_explosives" "pm_no_steam_automation" "pm_road_carts" }
			}
			create_building={
				building="building_textile_mills"
				add_ownership={
					building={
						type="building_textile_mills"
						country="c:C01"
						levels=1
						region="STATE_ARENEL"
					}
				}
				reserves=1
				activate_production_methods={ "pm_handsewn_clothes" "pm_traditional_looms" "pm_no_luxury_clothes" }
			}
			
			create_building={
				building="building_port"
				add_ownership={
					country={
						country="c:C01"
						levels=1
					}
				}
				reserves=1
				activate_production_methods={ "pm_basic_port" }
			}
			create_building={
				building="building_construction_sector"
				add_ownership={
					country={
						country="c:C01"
						levels=1
					}
				}
				reserves=1
				activate_production_methods={ "pm_wooden_buildings" }
			}
		}
	}

	s:STATE_NUR_ELIZNA = {
		region_state:C01 = {
			# create_building={
			# 	building="building_fishing_wharf"
			# 	level=1
			# 	reserves=1
			# 	activate_production_methods={ "pm_simple_fishing" "pm_unrefrigerated" "pm_merchant_guilds_building_fishing_wharf" }
			# }
			create_building={
				building="building_vineyard_plantation"
				add_ownership={
					building={
						type="building_manor_house"
						country="c:C01"
						levels=1
						region="STATE_NUR_ELIZNA"
					}
				}
				reserves=1
				activate_production_methods={ "default_building_vineyard_plantation" "pm_no_enhancements" "pm_road_carts"  }
			}
			create_building={
				building="building_port"
				add_ownership={
					country={
						country="c:C01"
						levels=1
					}
				}
				reserves=1
				activate_production_methods={ "pm_anchorage" }
			}
		}
	}

	s:STATE_NEWSHORE = {
		region_state:C10 = {
			create_building={
				building="building_logging_camp"
				add_ownership={
					building={
						type="building_logging_camp"
						country="c:C10"
						levels=1
						region="STATE_NEWSHORE"
					}
				}
				reserves=1
				activate_production_methods={ "pm_saw_mills" "pm_hardwood" "pm_no_equipment" "pm_road_carts" }
			}
			create_building={
				building="building_vineyard_plantation"
				add_ownership={
					building={
						type="building_manor_house"
						country="c:C10"
						levels=1
						region="STATE_NEWSHORE"
					}
				}
				reserves=1
				activate_production_methods={ "default_building_vineyard_plantation" "pm_no_enhancements" "pm_road_carts"  }
			}
			create_building={
				building="building_government_administration"
				add_ownership={
					country={
						country="c:C10"
						levels=1
					}
				}
				reserves=1
				activate_production_methods={ "pm_simple_organization" "pm_secular_bureaucrats" }
			}
			create_building={
				building="building_port"
				add_ownership={
					country={
						country="c:C10"
						levels=1
					}
				}
				reserves=1
				activate_production_methods={ "pm_basic_port" }
			}
			create_building={
				building="building_whaling_station"
				add_ownership={
					building={
						type="building_whaling_station"
						country="c:C10"
						levels=1
						region="STATE_NEWSHORE"
					}
				}
				reserves=1
				activate_production_methods={ "pm_adventurer_krakeneers" "pm_unrefrigerated" }
			}
			
		}
	}

	s:STATE_TIMBERNECK = {
		region_state:C10 = {
			create_building={
				building="building_logging_camp"
				add_ownership={
					building={
						type="building_logging_camp"
						country="c:C10"
						levels=2
						region="STATE_TIMBERNECK"
					}
					building={
						type="building_financial_district"
						country="c:C10"
						levels=1
						region="STATE_TIMBERNECK"
					}
					building={
						type="building_financial_district"
						country="c:C01"
						levels=1
						region="STATE_REZANOAN"
					}
				}
				reserves=1
				activate_production_methods={ "pm_saw_mills" "pm_no_hardwood" "pm_no_equipment" "pm_road_carts" }
			}
			create_building={
				building="building_whaling_station"
				add_ownership={
					building={
						type="building_whaling_station"
						country="c:C10"
						levels=1
						region="STATE_TIMBERNECK"
					}
				}
				reserves=1
				activate_production_methods={ "pm_adventurer_krakeneers" "pm_unrefrigerated" }
			}
			
		}
	}

	s:STATE_VRENDIN = {
		region_state:C10 = {
			create_building={
				building="building_logging_camp"
				add_ownership={
					building={
						type="building_logging_camp"
						country="c:C10"
						levels=1
						region="STATE_VRENDIN"
					}
				}
				reserves=1
				activate_production_methods={ "pm_simple_forestry" "pm_hardwood" "pm_no_equipment" "pm_road_carts" }
			}
			create_building={
				building="building_whaling_station"
				add_ownership={
					building={
						type="building_whaling_station"
						country="c:C10"
						levels=2
						region="STATE_VRENDIN"
					}
				}
				reserves=1
				activate_production_methods={ "pm_adventurer_krakeneers" "pm_unrefrigerated" }
			}
			
		}
		region_state:A01 = {
			create_building={
				building="building_whaling_station"
				add_ownership={
					building={
						type="building_whaling_station"
						country="c:A01"
						levels=1
						region="STATE_VRENDIN"
					}
				}
				reserves=1
				activate_production_methods={ "pm_adventurer_krakeneers" "pm_unrefrigerated" }
			}
			create_building={
				building="building_port"
				add_ownership={
					country={
						country="c:A01"
						levels=1
					}
				}
				reserves=1
				activate_production_methods={ "pm_anchorage" }
			}
		}
	}

	s:STATE_LAIPOINT_ARCHIPELAGO = {
		region_state:A01 = {
			create_building={
				building="building_port"
				add_ownership={
					country={
						country="c:A01"
						levels=1
					}
				}
				reserves=1
				activate_production_methods={ "pm_anchorage" }
			}
		}
		region_state:A09 = {
			create_building={
				building="building_port"
				add_ownership={
					country={
						country="c:A09"
						levels=1
					}
				}
				reserves=1
				activate_production_methods={ "pm_anchorage" }
			}
		}
	}

	s:STATE_WEST_TURTLEBACK = {
		region_state:C09 = {
			create_building={
				building="building_rice_farm"
				add_ownership={
					building={
						type="building_manor_house"
						country="c:C09"
						levels=3
						region="STATE_WEST_TURTLEBACK"
					}
				}
				reserves=1
				activate_production_methods={ "pm_simple_farming_building_rice_farm" "pm_no_secondary" "pm_tools_disabled" }
			}
			create_building={
				building="building_banana_plantation"
				add_ownership={
					building={
						type="building_manor_house"
						country="c:A09"
						levels=1
						region="STATE_HAPAINE"
					}
				}
				reserves=1
				activate_production_methods={ "default_building_banana_plantation" "pm_no_enhancements" "pm_road_carts"  }
			}
			create_building={
				building="building_sugar_plantation"
				add_ownership={
					building={
						type="building_manor_house"
						country="c:A09"
						levels=1
						region="STATE_HAPAINE"
					}
				}
				reserves=1
				activate_production_methods={ "default_building_sugar_plantation" "pm_no_enhancements" "pm_road_carts"  }
			}
			create_building={
				building="building_fishing_wharf"
				add_ownership={
					building={
						type="building_fishing_wharf"
						country="c:C09"
						levels=1
						region="STATE_WEST_TURTLEBACK"
					}
				}
				reserves=1
				activate_production_methods={ "pm_simple_fishing" "pm_unrefrigerated" }
			}
			create_building={
				building="building_food_industry"
				add_ownership={
					building={
						type="building_food_industry"
						country="c:C09"
						levels=1
						region="STATE_WEST_TURTLEBACK"
					}
				}
				reserves=1
				activate_production_methods={ "pm_disabled_canning" "pm_bakery" "pm_manual_dough_processing" "pm_disabled_distillery" }
			}
			
			create_building={
				building="building_port"
				add_ownership={
					country={
						country="c:C09"
						levels=1
					}
				}
				reserves=1
				activate_production_methods={ "pm_basic_port" }
			}
		}
	}

	s:STATE_EAST_TURTLEBACK = {
		region_state:C09 = {
			create_building={
				building="building_rice_farm"
				add_ownership={
					building={
						type="building_manor_house"
						country="c:C09"
						levels=3
						region="STATE_EAST_TURTLEBACK"
					}
				}
				reserves=1
				activate_production_methods={ "pm_simple_farming_building_rice_farm" "pm_no_secondary" "pm_tools_disabled" }
			}
			create_building={
				building="building_coffee_plantation"
				add_ownership={
					building={
						type="building_manor_house"
						country="c:A09"
						levels=1
						region="STATE_HAPAINE"
					}
				}
				reserves=1
				activate_production_methods={ "default_building_coffee_plantation" "pm_no_enhancements" "pm_road_carts"  }
			}
			create_building={
				building="building_fishing_wharf"
				add_ownership={
					building={
						type="building_fishing_wharf"
						country="c:C09"
						levels=1
						region="STATE_EAST_TURTLEBACK"
					}
				}
				reserves=1
				activate_production_methods={ "pm_simple_fishing" "pm_unrefrigerated" }
			}
			create_building={
				building="building_food_industry"
				add_ownership={
					building={
						type="building_food_industry"
						country="c:C09"
						levels=1
						region="STATE_EAST_TURTLEBACK"
					}
				}
				reserves=1
				activate_production_methods={ "pm_disabled_canning" "pm_bakery" "pm_manual_dough_processing" "pm_disabled_distillery" }
			}
			
			create_building={
				building="building_port"
				add_ownership={
					country={
						country="c:C09"
						levels=1
					}
				}
				reserves=1
				activate_production_methods={ "pm_basic_port" }
			}
		}
	}

}