﻿object={
	name="palm_dense_generator_2_0"
	clamp_to_water_level=no
	render_under_water=no
	generated_content=yes
	layer="semidynamic_medium"
	pdxmesh="tree_palm_01_mesh"
	count=12
	transform="2160.024170 0.000000 2085.972412 0.000000 0.856937 0.000000 0.515422 0.389889 0.389889 0.389889
2170.116699 0.000000 2082.753662 0.000000 0.859673 0.000000 0.510845 0.672846 0.672846 0.672846
2171.539551 0.000000 2085.972168 0.000000 0.079719 0.000000 0.996817 0.528111 0.528111 0.528111
2154.257812 0.000000 2092.184326 0.000000 0.597576 0.000000 0.801812 0.343573 0.343573 0.343573
2159.757812 0.000000 2092.687256 0.000000 0.706999 0.000000 0.707215 0.918219 0.918219 0.918219
5485.942871 0.000000 1264.597168 0.000000 0.392880 0.000000 0.919590 0.294157 0.294157 0.294157
5487.448242 0.000000 1267.163818 0.000000 0.728043 0.000000 0.685532 0.371299 0.371299 0.371299
4783.436035 0.000000 2407.065186 0.000000 0.825051 0.000000 0.565059 0.393183 0.393183 0.393183
4836.952637 0.000000 2412.820557 0.000000 0.812080 0.000000 0.583546 0.383566 0.383566 0.383566
4844.194824 0.000000 2440.905518 0.000000 0.115954 0.000000 0.993255 0.219472 0.219472 0.219472
4847.645996 0.000000 2436.526123 0.000000 0.007004 0.000000 0.999975 0.314527 0.314527 0.314527
4846.421387 0.000000 2437.875244 0.000000 0.752471 0.000000 0.658626 0.443854 0.443854 0.443854
"}
object={
	name="palm_dense_generator_2_1"
	clamp_to_water_level=no
	render_under_water=no
	generated_content=yes
	layer="semidynamic_medium"
	pdxmesh="tree_palm_02_mesh"
	count=21
	transform="2170.264893 0.000000 2084.075439 0.000000 0.947869 0.000000 -0.318661 0.822138 0.822138 0.822138
2159.339111 0.000000 2090.167969 0.000000 0.983786 0.000000 -0.179345 0.531805 0.531805 0.531805
2162.709717 0.000000 2104.011719 0.000000 0.982933 0.000000 0.183964 0.670965 0.670965 0.670965
2164.679199 0.000000 2109.611084 0.000000 0.911949 0.000000 0.410304 0.425428 0.425428 0.425428
2164.078369 0.000000 2106.592529 0.000000 0.912913 0.000000 0.408154 0.736332 0.736332 0.736332
2163.413330 0.000000 2109.472412 0.000000 0.893346 0.000000 0.449369 0.947990 0.947990 0.947990
2156.737061 0.000000 2092.743896 0.000000 0.998847 0.000000 0.048011 0.869970 0.869970 0.869970
2167.961670 0.000000 2091.614502 0.000000 0.972998 0.000000 0.230814 0.926761 0.926761 0.926761
2155.013184 0.000000 2091.132080 0.000000 0.895391 0.000000 -0.445282 1.000585 1.000585 1.000585
2167.309570 0.000000 2098.167480 0.000000 0.884666 0.000000 -0.466225 1.045299 1.045299 1.045299
2165.817627 0.000000 2090.972412 0.000000 0.999630 0.000000 0.027207 0.998268 0.998268 0.998268
2166.026367 0.000000 2094.832031 0.000000 0.985750 0.000000 0.168216 0.985189 0.985189 0.985189
5529.681152 0.000000 1219.949341 0.000000 0.907362 0.000000 -0.420350 0.583668 0.583668 0.583668
5487.537109 0.000000 1269.784668 0.000000 0.933512 0.000000 0.358547 0.430101 0.430101 0.430101
4789.994141 0.000000 2393.629883 0.000000 0.969121 0.000000 0.246585 0.448216 0.448216 0.448216
4782.693848 0.000000 2404.402344 0.000000 0.883896 0.000000 0.467684 0.416348 0.416348 0.416348
4782.782227 0.000000 2414.407959 0.000000 0.989490 0.000000 0.144598 0.472232 0.472232 0.472232
4772.144531 0.000000 2421.305176 0.000000 0.939153 0.000000 0.343500 0.446295 0.446295 0.446295
4766.288086 0.000000 2426.806152 0.000000 0.951293 0.000000 0.308289 0.447070 0.447070 0.447070
4792.708984 0.000000 2392.787354 0.000000 0.956273 0.000000 0.292477 0.452093 0.452093 0.452093
4827.678223 0.000000 2433.842285 0.000000 0.904153 0.000000 -0.427208 0.580169 0.580169 0.580169
"}
object={
	name="palm_dense_generator_2_2"
	clamp_to_water_level=no
	render_under_water=no
	generated_content=yes
	layer="semidynamic_medium"
	pdxmesh="tree_palm_03_mesh"
	count=23
	transform="2161.129150 0.000000 2083.843506 0.000000 0.791639 0.000000 -0.610990 0.608553 0.608553 0.608553
2146.508057 0.000000 2080.003174 0.000000 0.606181 0.000000 -0.795326 0.658058 0.658058 0.658058
2171.964600 0.000000 2084.739258 0.000000 0.631196 0.000000 -0.775623 0.913390 0.913390 0.913390
2172.027344 0.000000 2078.319824 0.000000 0.180953 0.000000 -0.983492 0.713760 0.713760 0.713760
2154.601562 0.000000 2085.286133 0.000000 0.573514 0.000000 -0.819196 0.816405 0.816405 0.816405
2147.429199 0.000000 2083.608398 0.000000 0.711486 0.000000 -0.702701 1.030421 1.030421 1.030421
2159.883057 0.000000 2094.945557 0.000000 0.613136 0.000000 -0.789977 0.650411 0.650411 0.650411
2162.516357 0.000000 2105.953369 0.000000 0.458570 0.000000 -0.888658 0.878524 0.878524 0.878524
2155.903809 0.000000 2090.029297 0.000000 0.840019 0.000000 -0.542557 1.017381 1.017381 1.017381
2165.144775 0.000000 2099.242920 0.000000 0.243930 0.000000 -0.969793 1.105050 1.105050 1.105050
2157.104004 0.000000 2091.376465 0.000000 0.842974 0.000000 -0.537954 1.056581 1.056581 1.056581
2165.577393 0.000000 2104.953857 0.000000 0.806507 0.000000 -0.591224 1.071540 1.071540 1.071540
2178.575684 0.000000 2074.564453 0.000000 0.589275 0.000000 -0.807932 0.654638 0.654638 0.654638
5527.955566 0.000000 1219.962402 0.000000 0.456117 0.000000 -0.889920 0.677544 0.677544 0.677544
5516.552734 0.000000 1268.850342 0.000000 0.111112 0.000000 -0.993808 0.806609 0.806609 0.806609
4789.860840 0.000000 2420.410156 0.000000 0.335474 0.000000 -0.942049 0.718558 0.718558 0.718558
4791.819336 0.000000 2391.174561 0.000000 0.029887 0.000000 -0.999553 0.813333 0.813333 0.813333
4772.550293 0.000000 2403.137695 0.000000 0.381130 0.000000 -0.924522 0.685117 0.685117 0.685117
4773.577148 0.000000 2420.512207 0.000000 0.342124 0.000000 -0.939655 0.687107 0.687107 0.687107
4782.867676 0.000000 2402.803467 0.000000 0.562102 0.000000 -0.827068 0.708414 0.708414 0.708414
4832.618164 0.000000 2432.193848 0.000000 0.859709 0.000000 -0.510784 0.605800 0.605800 0.605800
4834.934570 0.000000 2432.397217 0.000000 0.542167 0.000000 -0.840271 0.673748 0.673748 0.673748
4841.963379 0.000000 2436.357422 0.000000 0.144817 0.000000 -0.989458 0.710856 0.710856 0.710856
"}
