﻿CHARACTERS = {
	c:C33 ?= {
		create_character = {
            ig_leader = yes
            age = 69
            ig_leader = yes
            ruler = yes
            interest_group = ig_landowners
            traits = {}
        }
    }
}
